%YAML 1.1
%TAG !u! tag:unity3d.com,2011:
--- !u!114 &11400000
MonoBehaviour:
  m_ObjectHideFlags: 0
  m_CorrespondingSourceObject: {fileID: 0}
  m_PrefabInstance: {fileID: 0}
  m_PrefabAsset: {fileID: 0}
  m_GameObject: {fileID: 0}
  m_Enabled: 1
  m_EditorHideFlags: 0
  m_Script: {fileID: 11500000, guid: 1c5e9470d193f5d4c8d2b9ea05e15f8c, type: 3}
  m_Name: PlayerControllerSettings
  m_EditorClassIdentifier: 
  _horizontalInputName: Horizontal
  _verticalInputName: Vertical
  _overOffSetRotation: 0.4
  _overRotationDelta: -0.9
